<?xml version="1.0" encoding="UTF-8" standalone="no"?>
<svg
   xmlns:dc="http://purl.org/dc/elements/1.1/"
   xmlns:cc="http://creativecommons.org/ns#"
   xmlns:rdf="http://www.w3.org/1999/02/22-rdf-syntax-ns#"
   xmlns:svg="http://www.w3.org/2000/svg"
   xmlns="http://www.w3.org/2000/svg"
   xmlns:xlink="http://www.w3.org/1999/xlink"
   xmlns:sodipodi="http://sodipodi.sourceforge.net/DTD/sodipodi-0.dtd"
   xmlns:inkscape="http://www.inkscape.org/namespaces/inkscape"
   height="100"
   id="layer1"
   width="300"
   version="1.1"
   sodipodi:docname="keepabove.svg"
   inkscape:version="0.92.4 (5da689c313, 2019-01-14)">
  <metadata
     id="metadata23">
    <rdf:RDF>
      <cc:Work
         rdf:about="">
        <dc:format>image/svg+xml</dc:format>
        <dc:type
           rdf:resource="http://purl.org/dc/dcmitype/StillImage" />
      </cc:Work>
    </rdf:RDF>
  </metadata>
  <defs
     id="defs21" />
  <sodipodi:namedview
     pagecolor="#ffffff"
     bordercolor="#666666"
     borderopacity="1"
     objecttolerance="10"
     gridtolerance="10"
     guidetolerance="10"
     inkscape:pageopacity="0"
     inkscape:pageshadow="2"
     inkscape:window-width="1920"
     inkscape:window-height="1022"
     id="namedview19"
     showgrid="false"
     inkscape:zoom="3.1866667"
     inkscape:cx="73.618152"
     inkscape:cy="54.073486"
     inkscape:window-x="0"
     inkscape:window-y="0"
     inkscape:window-maximized="1"
     inkscape:current-layer="layer1" />
  <!-- 
	Generated using the Perl SVG Module V2.49
	by Ronan Oger
	Info: http://www.roitsystems.com/
 -->
  <image
     y="54.774834"
     x="8.6895437"
     id="active-center"
     xlink:href="data:image/png;base64,iVBORw0KGgoAAAANSUhEUgAAABsAAAATCAYAAABhh3Y4AAAABHNCSVQICAgIfAhkiAAAAXNJREFU SIm9lL9KQzEUh7+T5N5EBXEoOrQK/qMv4Du4FLoIQoeuzi4FQSqCKE7OXR0KQhfBxXfoKEihfQMn QfS23upgW4peuelw+4MDSTj5fZzkJAI04jhmSp+AIV2+eQAYY36Su91uu1gsPvpunFWdTmcf2FNZ AX5JAOYFY14wmRvMOTcZe3cTQKlcvbLWVcbzKPpoPtzfnnhuF2/YGNS6a0zWDg6PKqVyFR+gUsrv GJNAAK27Bta6SqlcvfLxSYWNQdeXNXq93p+4vqx5A1Nh1rrKxfkxg8Hg37g4P2b6Lv+TAdBai3Mr kpTQ70fN07ObVKN+P2omeVhrRWstE1iMkkIhn9gsz0/tOlBPgwEkeYRhIDFKhsPhqDJEra5vz/QM fGWMEY0oGFUmovVWfjfIAqa1FhGtgS8DEARWNjY2M6ls7A+jysIwUGuFvM4KFoaBgp9PsvH+Hr28 vn10s4ItL7mdxUWXMwALCzYH5LKCAYgI33FWcLv8RFmcAAAAAElFTkSuQmCC "
     style="image-rendering:optimizeSpeed"
     preserveAspectRatio="none"
     height="19"
     width="27" />
  <image
     y="54.774834"
     x="35.689545"
     id="hover-center"
     xlink:href="data:image/png;base64,iVBORw0KGgoAAAANSUhEUgAAABsAAAATCAYAAABhh3Y4AAAABHNCSVQICAgIfAhkiAAAA9RJREFU SIlllTurJUUUhb+1q6r7XBV0zAXNxNcfMFHQSDNBBE3MlAmMRFAQhDExETEyEjPxL6iZsTImjqLR 4I0E8X1Od9VeBn3PuePYUFBU136ttfYuSfqo9w4gtq9nZo2IW8/ITCJCmXk86hFRM9MXd4+fL+7+ 56zWSgV486vz5z/95te7mWZkMzXTWqWqKhzUHRSBBIzccjAYQw16wtjDwYPO8OiDsQoGuJoXHr7z N+CzCiAJakNpYjalFlUX3IJWQSMpRRQJ7igIsIHVjDQeSZwVei+UhL0TuhkB6t78A/UEVQghWsBM xa0wN6hpfFZoAaGZzM3AQMwQTjIXdEjOSrDvRZOHe+uYIPcnJlQjAttoQNklk6vsSiWJpRMzeJ1p IUrteApkg4SWZD9M9KDUxN1MO7GsTR7B6Ks9bxxHBCcYtRMBaG5E9QVsjanNzHMw1aBaFEEgjOkN JpmlJ3/+bqbJeDWWHCr0ApnLSSX1uIkcaN5ROp4qtAiRYt5VZmCn4O7vvuCumzeQhG3+vO9Bfnvo KSRYzxprN7WuZEKOzebv0i6D2cY2kwJSlB2USLVoqIkJMc3JPd9+zl3nP/DutTdOxm+9/R5F8Msj T9JWkS3IxZSykob9HubYErPNqRnUGpOAAj0aoxQKENPgyvUvufPn77n2zuvYJjOxzbV3Xufs5g2u XP+SNpuGiFbBBQXMBfrQZWXHzTqMaqK9aGdhG2JG93z9OdPNG1x97WXOz885cmwbgKuvvMT7H3zM vWvn/NGnnXvwVOh/rXQZxmVnnyqLLqJAmQJFEBNMBeqP17n66ous60rv/X9rXVeuvvoi7advmQKi BE6RVShNny6DnSpDRg7UJqIEAUrB4YHH+ODDT6i10Fqj1HIyGX1cJDE43P8oGSiKqYSnGiyRNN8S TBLHFXExkiRCEA6Wx59hfeJZphRzEe2CAgGL4TDMEmYcBnFIQjCqoDciksg8+b+U/k44N0LLnHIJ rEI3RA96QHOwICgBNs6kk4wuhrYMsgyoZixiKSBuE8hRmn0KdiqQYEG2YB9Bs6iIJURpM7BNkJEL Nqw2a2w8sWrTUIRbiPUwTmKqeSoztoFpJAm6cYOBEWYocMLwlq0NacgQPc24cGhvg9ebI8QGYWYS W5oAW3VpY8MoIs1FKHHI7XXpvTMQA+iGnkcHIvN4H7BZMnE9wegTjM89eO8/S5WEtWIN1yhNMtIy JG8Ey4Ci4zTsxECWxVTConisdlHPpmb7zFO3l3/+OPanPjqK/9bXdVNnCLaJfdzf3tQAmenjC56Z vu0fR/T+BecvMonnPCkpAAAAAElFTkSuQmCC "
     style="image-rendering:optimizeSpeed"
     preserveAspectRatio="none"
     height="19"
     width="27" />
  <image
     y="54.774834"
     x="62.689545"
     id="pressed-center"
     xlink:href="data:image/png;base64,iVBORw0KGgoAAAANSUhEUgAAABsAAAATCAYAAABhh3Y4AAAABHNCSVQICAgIfAhkiAAAAxNJREFU SIm1lc+KHVUQxn/153Tf0UE3k5047lXIxo0bcZV1QNAnMOtsEhBBAiEQN4K78Q0CA76BzyBxZxiJ RAzBWQnOJLdPn3JRffv2zB3RjQWHc/vcPvXVV19VtYjIUa2VhVXA+Xf7r+8BYGb58t1vjz8/+v4H xApqipih7pg7YoaoIaqggogiIkQERBARRGtEG2m1EmPubRzn37dufgzw3RyZmKPF0QloBnNHbQKV DeAE1oKIlk7HEVEjap0CGmgiEDGzm8E2LKwUtHQJWApmuc8MbQMG0QIigdp6TXOnDWtQBSBE0KvA ZHKupcNKwboe7QpWujx3n9IpMEUcEcSUrtGcsQ6ZblkjAgxCW+g2g6kZ5gXrOqzrsb7Hug7vupmp uCOSzABaNGLSR92R9SuaagYjzKmewVRVgAWjDut7fLVKsD53LYVrv/3EG6dP58t/XnuHP956nzZU RnNQZZRMIVMBXamZuidQ6fENWN/jqz287zn49Uf2T59y/OhovvzJp7dQNU4Pr6OeKd6wTlaNGLeJ 1CWYuKdOfb8F2tvj4Nlj9l+cXAACOH50xP6LEw6ePcZWe1i/mlZKoF1qvVuNJYshNUvdfLVKRs+f 8PDBHU5OTrhsDx/c4e4XXyMCp29fB4JolVY7tFa0jrvMxCxLfalb37P//An3791mGIZ/XPfv3eb1 358ko5JSWCmoZ8vsMJNFM+vMsuf88D2+/OqbHUaX7fzwXazrabUyroetryVYaymgqiWg5cTI5i6c f3CD+tHNrQ7uiGj2WK3UYc348iXD2Rl29hejl2kSOaKafbfLLP8QU8QccUPN5n2T4k2vRWwmRCMm FmI2Ba1bf3oxjdkIonMkoprzbb48Aeu0RBCyvNWMZrYdZ655Z/YluwVy0SKnANNoymimbXEm+SxX eOCK020TRJvmHYvub8TmvOVOayBCsPm0tPlzA9O8XEyOaJcmSETw2Y0PaV5o5jTvGPu97bMVUKOp gWbeBcAN6TrkNUPf7NBxH60D9uocrQM6VnQcWP/y85QUkaNYzK//0/4Gr3BXrYCtRjAAAAAASUVO RK5CYII= "
     style="image-rendering:optimizeSpeed"
     preserveAspectRatio="none"
     height="19"
     width="27" />
  <image
     y="54.774834"
     x="89.689545"
     id="inactive-center"
     xlink:href="data:image/png;base64,iVBORw0KGgoAAAANSUhEUgAAABsAAAATCAYAAABhh3Y4AAAABHNCSVQICAgIfAhkiAAAAQZJREFU SIndlcFKw0AQhr9ZkgfoM+gbBN9CT5X6ArU996IgQikUQS+eU3wBxd76FiVPFDPjwSSkpSEjkhz8 YWF3dnY+mNmdFSAtioKGvoCIbnn9AIii6MdZRPYhhDfvwd9KVafARegLcCQBGArGUDAZDGZm9dx9 mwDGk9klkDRM2fZjs3MeFzesAn2+p7Xt+maejCczPMAQgi+Np0AA5Top9zslQKqqre+sAj0/3bUG uX94gZaUmpmY2TSOY9c7S9arBXmet471agGHtTwpT82yx+VrZyAgc/iQlu2kF5mZqOqtiGz+XQep ZL3DRKRuIYOmsfrPzlX1qi+IiJw1YSPA1QX+AOQbnUliDbnl2KgAAAAASUVORK5CYII= "
     style="image-rendering:optimizeSpeed"
     preserveAspectRatio="none"
     height="19"
     width="27" />
  <image
     width="27"
     height="19"
     preserveAspectRatio="none"
     style="image-rendering:optimizeSpeed"
     xlink:href="data:image/png;base64,iVBORw0KGgoAAAANSUhEUgAAABsAAAATCAYAAABhh3Y4AAAABHNCSVQICAgIfAhkiAAAA9RJREFU SIlllTurJUUUhb+1q6r7XBV0zAXNxNcfMFHQSDNBBE3MlAmMRFAQhDExETEyEjPxL6iZsTImjqLR 4I0E8X1Od9VeBn3PuePYUFBU136ttfYuSfqo9w4gtq9nZo2IW8/ITCJCmXk86hFRM9MXd4+fL+7+ 56zWSgV486vz5z/95te7mWZkMzXTWqWqKhzUHRSBBIzccjAYQw16wtjDwYPO8OiDsQoGuJoXHr7z N+CzCiAJakNpYjalFlUX3IJWQSMpRRQJ7igIsIHVjDQeSZwVei+UhL0TuhkB6t78A/UEVQghWsBM xa0wN6hpfFZoAaGZzM3AQMwQTjIXdEjOSrDvRZOHe+uYIPcnJlQjAttoQNklk6vsSiWJpRMzeJ1p IUrteApkg4SWZD9M9KDUxN1MO7GsTR7B6Ks9bxxHBCcYtRMBaG5E9QVsjanNzHMw1aBaFEEgjOkN JpmlJ3/+bqbJeDWWHCr0ApnLSSX1uIkcaN5ROp4qtAiRYt5VZmCn4O7vvuCumzeQhG3+vO9Bfnvo KSRYzxprN7WuZEKOzebv0i6D2cY2kwJSlB2USLVoqIkJMc3JPd9+zl3nP/DutTdOxm+9/R5F8Msj T9JWkS3IxZSykob9HubYErPNqRnUGpOAAj0aoxQKENPgyvUvufPn77n2zuvYJjOxzbV3Xufs5g2u XP+SNpuGiFbBBQXMBfrQZWXHzTqMaqK9aGdhG2JG93z9OdPNG1x97WXOz885cmwbgKuvvMT7H3zM vWvn/NGnnXvwVOh/rXQZxmVnnyqLLqJAmQJFEBNMBeqP17n66ous60rv/X9rXVeuvvoi7advmQKi BE6RVShNny6DnSpDRg7UJqIEAUrB4YHH+ODDT6i10Fqj1HIyGX1cJDE43P8oGSiKqYSnGiyRNN8S TBLHFXExkiRCEA6Wx59hfeJZphRzEe2CAgGL4TDMEmYcBnFIQjCqoDciksg8+b+U/k44N0LLnHIJ rEI3RA96QHOwICgBNs6kk4wuhrYMsgyoZixiKSBuE8hRmn0KdiqQYEG2YB9Bs6iIJURpM7BNkJEL Nqw2a2w8sWrTUIRbiPUwTmKqeSoztoFpJAm6cYOBEWYocMLwlq0NacgQPc24cGhvg9ebI8QGYWYS W5oAW3VpY8MoIs1FKHHI7XXpvTMQA+iGnkcHIvN4H7BZMnE9wegTjM89eO8/S5WEtWIN1yhNMtIy JG8Ey4Ci4zTsxECWxVTConisdlHPpmb7zFO3l3/+OPanPjqK/9bXdVNnCLaJfdzf3tQAmenjC56Z vu0fR/T+BecvMonnPCkpAAAAAElFTkSuQmCC "
     id="image874"
     x="116.68954"
     y="54.774834" />
  <image
     width="27"
     height="19"
     preserveAspectRatio="none"
     style="image-rendering:optimizeSpeed"
     xlink:href="data:image/png;base64,iVBORw0KGgoAAAANSUhEUgAAABsAAAATCAYAAABhh3Y4AAAABHNCSVQICAgIfAhkiAAAAxNJREFU SIm1lc+KHVUQxn/153Tf0UE3k5047lXIxo0bcZV1QNAnMOtsEhBBAiEQN4K78Q0CA76BzyBxZxiJ RAzBWQnOJLdPn3JRffv2zB3RjQWHc/vcPvXVV19VtYjIUa2VhVXA+Xf7r+8BYGb58t1vjz8/+v4H xApqipih7pg7YoaoIaqggogiIkQERBARRGtEG2m1EmPubRzn37dufgzw3RyZmKPF0QloBnNHbQKV DeAE1oKIlk7HEVEjap0CGmgiEDGzm8E2LKwUtHQJWApmuc8MbQMG0QIigdp6TXOnDWtQBSBE0KvA ZHKupcNKwboe7QpWujx3n9IpMEUcEcSUrtGcsQ6ZblkjAgxCW+g2g6kZ5gXrOqzrsb7Hug7vupmp uCOSzABaNGLSR92R9SuaagYjzKmewVRVgAWjDut7fLVKsD53LYVrv/3EG6dP58t/XnuHP956nzZU RnNQZZRMIVMBXamZuidQ6fENWN/jqz287zn49Uf2T59y/OhovvzJp7dQNU4Pr6OeKd6wTlaNGLeJ 1CWYuKdOfb8F2tvj4Nlj9l+cXAACOH50xP6LEw6ePcZWe1i/mlZKoF1qvVuNJYshNUvdfLVKRs+f 8PDBHU5OTrhsDx/c4e4XXyMCp29fB4JolVY7tFa0jrvMxCxLfalb37P//An3791mGIZ/XPfv3eb1 358ko5JSWCmoZ8vsMJNFM+vMsuf88D2+/OqbHUaX7fzwXazrabUyroetryVYaymgqiWg5cTI5i6c f3CD+tHNrQ7uiGj2WK3UYc348iXD2Rl29hejl2kSOaKafbfLLP8QU8QccUPN5n2T4k2vRWwmRCMm FmI2Ba1bf3oxjdkIonMkoprzbb48Aeu0RBCyvNWMZrYdZ655Z/YluwVy0SKnANNoymimbXEm+SxX eOCK020TRJvmHYvub8TmvOVOayBCsPm0tPlzA9O8XEyOaJcmSETw2Y0PaV5o5jTvGPu97bMVUKOp gWbeBcAN6TrkNUPf7NBxH60D9uocrQM6VnQcWP/y85QUkaNYzK//0/4Gr3BXrYCtRjAAAAAASUVO RK5CYII= "
     id="pressed-inactive-center"
     x="143.68954"
     y="54.774834" />
  <image
     width="27"
     height="19"
     preserveAspectRatio="none"
     style="image-rendering:optimizeSpeed"
     xlink:href="data:image/png;base64,iVBORw0KGgoAAAANSUhEUgAAABsAAAATCAYAAABhh3Y4AAAABHNCSVQICAgIfAhkiAAAAQZJREFU SIndlcFKw0AQhr9ZkgfoM+gbBN9CT5X6ArU996IgQikUQS+eU3wBxd76FiVPFDPjwSSkpSEjkhz8 YWF3dnY+mNmdFSAtioKGvoCIbnn9AIii6MdZRPYhhDfvwd9KVafARegLcCQBGArGUDAZDGZm9dx9 mwDGk9klkDRM2fZjs3MeFzesAn2+p7Xt+maejCczPMAQgi+Np0AA5Top9zslQKqqre+sAj0/3bUG uX94gZaUmpmY2TSOY9c7S9arBXmet471agGHtTwpT82yx+VrZyAgc/iQlu2kF5mZqOqtiGz+XQep ZL3DRKRuIYOmsfrPzlX1qi+IiJw1YSPA1QX+AOQbnUliDbnl2KgAAAAASUVORK5CYII= "
     id="deactivated-center"
     x="170.68954"
     y="54.774834" />
  <image
     y="54.774834"
     x="197.68954"
     id="deactivated-inactive-center"
     xlink:href="data:image/png;base64,iVBORw0KGgoAAAANSUhEUgAAABsAAAATCAYAAABhh3Y4AAAABHNCSVQICAgIfAhkiAAAAQZJREFU SIndlcFKw0AQhr9ZkgfoM+gbBN9CT5X6ArU996IgQikUQS+eU3wBxd76FiVPFDPjwSSkpSEjkhz8 YWF3dnY+mNmdFSAtioKGvoCIbnn9AIii6MdZRPYhhDfvwd9KVafARegLcCQBGArGUDAZDGZm9dx9 mwDGk9klkDRM2fZjs3MeFzesAn2+p7Xt+maejCczPMAQgi+Np0AA5Top9zslQKqqre+sAj0/3bUG uX94gZaUmpmY2TSOY9c7S9arBXmet471agGHtTwpT82yx+VrZyAgc/iQlu2kF5mZqOqtiGz+XQep ZL3DRKRuIYOmsfrPzlX1qi+IiJw1YSPA1QX+AOQbnUliDbnl2KgAAAAASUVORK5CYII= "
     style="image-rendering:optimizeSpeed"
     preserveAspectRatio="none"
     height="19"
     width="27" />
</svg>
