<?xml version="1.0" encoding="UTF-8" standalone="no"?>
<svg
   xmlns:dc="http://purl.org/dc/elements/1.1/"
   xmlns:cc="http://creativecommons.org/ns#"
   xmlns:rdf="http://www.w3.org/1999/02/22-rdf-syntax-ns#"
   xmlns:svg="http://www.w3.org/2000/svg"
   xmlns="http://www.w3.org/2000/svg"
   xmlns:xlink="http://www.w3.org/1999/xlink"
   xmlns:sodipodi="http://sodipodi.sourceforge.net/DTD/sodipodi-0.dtd"
   xmlns:inkscape="http://www.inkscape.org/namespaces/inkscape"
   height="100"
   id="layer1"
   width="300"
   version="1.1"
   sodipodi:docname="keepbelow.svg"
   inkscape:version="0.92.4 (5da689c313, 2019-01-14)">
  <metadata
     id="metadata23">
    <rdf:RDF>
      <cc:Work
         rdf:about="">
        <dc:format>image/svg+xml</dc:format>
        <dc:type
           rdf:resource="http://purl.org/dc/dcmitype/StillImage" />
      </cc:Work>
    </rdf:RDF>
  </metadata>
  <defs
     id="defs21" />
  <sodipodi:namedview
     pagecolor="#ffffff"
     bordercolor="#666666"
     borderopacity="1"
     objecttolerance="10"
     gridtolerance="10"
     guidetolerance="10"
     inkscape:pageopacity="0"
     inkscape:pageshadow="2"
     inkscape:window-width="1466"
     inkscape:window-height="781"
     id="namedview19"
     showgrid="false"
     inkscape:zoom="3.0974253"
     inkscape:cx="102.94297"
     inkscape:cy="50"
     inkscape:window-x="272"
     inkscape:window-y="144"
     inkscape:window-maximized="0"
     inkscape:current-layer="layer1" />
  <!-- 
	Generated using the Perl SVG Module V2.49
	by Ronan Oger
	Info: http://www.roitsystems.com/
 -->
  <image
     y="27.221638"
     x="1.3510442"
     id="active-center"
     xlink:href="data:image/png;base64,iVBORw0KGgoAAAANSUhEUgAAABsAAAATCAYAAABhh3Y4AAAABHNCSVQICAgIfAhkiAAAAY9JREFU SIm9lb9LQlEUx7/nXu99T4RqkBo0oV84BE3Rv9AkOAjGWxydm0IRNQiCFmdHl0dBg+Ji+CfYKIjg f1ARBGHefNpgllTPq4F+4Sz3nHM/nHPuDwJQdBwHE+oD8ECvWeMAAEKIUXCn07kPh8N3sybOq3a7 fQzgkC0K8EMEAMuCYSkw0zRpabAJ0VLbqD26kWjiUkrD0sUp1bOr5VLKzU9EepiUhnVxfqoLQyZX sAC4woAZZqZUz87kChBCuFomV4BSPVu3l7ayarmUikQTOEtfWbc3xV/+WDypbeFYDAA452Saa65W r1XSSik7Fk/+AVJ2vVZJu+evEuecvipzwCgYDEytstVsZPcPjlgsnjwZr/X779etZiM7LVdKSQ4Y DYfDEYyD2PrmjralD89PeQD5yTVdnhAe4qMrNvQAABHn24E9oYP9R4OBQ0ScA59tFMKgUGhr5u9i XglhfM9MSsE2ggG+KJiUggGjp7/Y7fYeX17fOouCrfjMXZ/P6/cAgNdr+AH4FwUDAMYYPgAxUmdY khnSvgAAAABJRU5ErkJggg== "
     style="image-rendering:optimizeSpeed"
     preserveAspectRatio="none"
     height="19"
     width="27" />
  <image
     y="27.221638"
     x="28.351044"
     id="hover-center"
     xlink:href="data:image/png;base64,iVBORw0KGgoAAAANSUhEUgAAABsAAAATCAYAAABhh3Y4AAAABHNCSVQICAgIfAhkiAAAA9RJREFU SIlllT3PZTcVhZ+1bZ/zziCBolSUI0UIEsiXlFBT5IMaCXr+AFQUYUQkJIoQRaIZJWlSkQL+AT09 CIk/gAQFzQhlxPuea3svCt97Z0KsY51ty972XnuvZUXEp713MlMRATBsV0kAss256WpI2B5APU/5 Mg/Y9sUmM4kIt9bW4vf+/K8f/+Gvj7/hthOGbTO1VqqqCqLuIJ37zGUkJIYaZMI84C6TyfSck3kS noZmfvLi1/4D/LECKITLRhhiN1GKKgVXURvENEVCGN0vK0gbnxIbZia6F5QelITDCWEm4L78c4Zh 4VVAhhrBropD7A3KTLwHrQq8k5NrK/vaPccd5ZjcK4W7LjXCo01syOMp+nXhD5oi9mR3kzOo1cSp EzswGnVC1EluAU6kIHpyN02ZlWgdDbPdF6ejCBdmP6zNy7+0ciaBdigEbpXSoFRRadxsN2xbUAMi oYTQ2s2oZgsYCU++SNpmshtHWNOMsuE8ONfKtZoIJ9pvaIkbsKnIadoWbMAWQbtJCnkuPjER/RSc Mtn3Sp/QaicTnHATwX/rdoW92gZDQ5Ci7FBKqpUGFZ7/y5/4+j//Tq2F1hqlluvmOSa9d8aYPP7m d/j3K+/gbkrt2HB7mE3rbrafRqZtowEuMNQYpbKT3P/H3/jZz3+KpCt3zjzjTCps89HvPuPxqz9k 1IpOCTHZi7gdcb3c1erTDE3GYewwxmUz41uv8ujjz2mtLe79X2+t8ejjz+kvvAwtjeXcCmOawYR5 FYVncjZEbKa2QKWgZloRx2vvcNMqjz75Pb/59S+u0Vyi/OWvfst44XscL/6ANs1RAo/AVWiYuemr kSlAFqqNKEEQcggiePLG2xwPXuLh+x8iiYhAEg/f/5DjwUs8eeNtLOEqKaxKsBUREk1PD1sauL7F 9HNuQiZSeAsy4Pb1t5DFew8/uObs9OC73L7+FqmErRB3k5DJGnhsRJhwLv8XngGLvAkzg1pT1CAV 9JmULIxW6G++y/z+u6hWnEnOZKQZ3QyEFbhOyCRPwamCBl+G0V59bkJeFLDALThFoSPScAh629dc bRyITOiIHitPC5klhlsIxjMFspK9IDyju0AdQIOplctuyBTTImySZU9gEkwmvlwc8MXZ+W+bOMvB NbqLPswCE9bzYXP4HEXvdMPIZJp1oJf65+WgC53SZLnWoCuA0/zo28/d9hYSqRPWzBq1SYnUU0Ki IK1XciyPOyQyLrSwg/Do1SVGbqq277n19On2i3PFR3x6VoUvvcTnEtel1G1fx9er2mSmJZGZ1/FF VZ5ZZ4D/AX0oIxWADKooAAAAAElFTkSuQmCC "
     style="image-rendering:optimizeSpeed"
     preserveAspectRatio="none"
     height="19"
     width="27" />
  <image
     y="27.221638"
     x="55.351044"
     id="pressed-center"
     xlink:href="data:image/png;base64,iVBORw0KGgoAAAANSUhEUgAAABsAAAATCAYAAABhh3Y4AAAABHNCSVQICAgIfAhkiAAAAwhJREFU SIm1lT+rXUUUxX/7z5y5TyQWksIgYuNDUBS0ibGQFCISLJRAUlj7aquAPHgIVjYPy+c3EFP4Dfwe BizSCGIaQ8x995yZbTFzzr3xPnk2Dgz7/Jkza6+916wjqno2jiM7YwKcy8d/XQeAmbXF97778Yuz n35GLKGmiBnqjrkjZogaogoqiCgiQkRABBFB1ErUQp0morRYS1mujz69CfC9A4gIYo4mRzvQAuaO WgeVGbCD1SCitk1LQdSIaeoJjVQRiFjYLWWYWVhKaBoaYEqYtbgwtBkMogZEA6qbDdWdOm5AFYAQ QS8C05QaizRgKWFDRoeEpQFNCXXv5RToGUcE0ctVzCnT2MotG0SAUag7fXNAgF6+hA0DNmQsZ2wY 8GFYmIp7K7kIADUq0fuj7sjmnKrakhGWUl/AbGY0YDnjq1UDyy3OzEWkZQ9ErdRppI4TxRxUKdLe 0QX0TM/mLNWtAaWMz2A5c+2PB1x59PBSaf/54iv8dvVwYd1YVaJsC7llNitvSK2EOeOrA648esg3 X395KdjxySm/v/xWJxNELUSZ0FKWNTpfWGpiaD1rffPViicvvcbxySkppX+dxyenPLl2SDo4wFcZ G7qiu7j2mIlZk/pu33Lm8ds3sZy599W33P/hbI/R7TtHrF99k8ev38Ce/tUOdOpzTIht9pnJzmHW hWXG8or19VuMh+9w+87RHtB4+C7r92519bbyq6ftXmYX9EytAVpzjHa4t0zHDz5DU3oGsL5xnfH9 T7D1mpomIo0UT92JHFFdlAvgEU2bYu2FmCLmiBtqtkRNifjwLuXjz7cOMk3o5pzoLMSsJ63b/fQC ZogumYhq87fl4w6sfYogNNWpGdVsa2eu7ZtlL9nv2c7ZA6K5AN2aWjY97DyTdi9cNPafbplF7X7H zumvxPy8tkitIEIw/1rq8ruB7pc7zhH/tKsA7n50g+qJak71gZIPtveWQI2qBtrWC4AbMgzIc4a+ MKDleXQasfOn6DSiZULLyObXX3qnVM9q3fXm/2/8DX8qQVGhsVF0AAAAAElFTkSuQmCC "
     style="image-rendering:optimizeSpeed"
     preserveAspectRatio="none"
     height="19"
     width="27" />
  <image
     y="27.221638"
     x="82.351044"
     id="inactive-center"
     xlink:href="data:image/png;base64,iVBORw0KGgoAAAANSUhEUgAAABsAAAATCAYAAABhh3Y4AAAABHNCSVQICAgIfAhkiAAAAUhJREFU SIm9lE1OwlAQx39T4ACsPUaXxhuwA2FPCqxN1CaEhJgYo2jCumLYqxA3PQGJS27B3gvIGxdKqbbN K1/+N31f837zpjMjQLBcLonpEyhiV95zAJRKJQACY4yX18gmf7ZIfI0xnuM4gbMviEUCsTBUT1u5 rIzC22S0FfHgL7s9OZLVOHrZ+Okhl3HTO9+WK//1z4CU1E14LlIB3Nicar2ddtd8+vIYZoFEJL1O pq/rBKjW2+711ZnFZ+j1hy6QCYOMovyTmfNef+je3VxmXuJ3BwBzm0P2DqAaIoLfHbiT5yCxXWt0 wBLCTFhGVobN1gW1RucXcBNQKixL49F9BIwt5wap6hqWs35Co4RbdhCNYPEM3KdEBGMMEAvjamEX OU6yR/izhUb7OxM2kACBqn6o6vvBICLHhUKhXPyZlIHKoWDwHeIvlAFvF4CmcrwAAAAASUVORK5C YII= "
     style="image-rendering:optimizeSpeed"
     preserveAspectRatio="none"
     height="19"
     width="27" />
  <image
     y="27.221638"
     x="109.35104"
     id="hover-inactive-center"
     xlink:href="data:image/png;base64,iVBORw0KGgoAAAANSUhEUgAAABsAAAATCAYAAABhh3Y4AAAABHNCSVQICAgIfAhkiAAAA9RJREFU SIlllT3PZTcVhZ+1bZ/zziCBolSUI0UIEsiXlFBT5IMaCXr+AFQUYUQkJIoQRaIZJWlSkQL+AT09 CIk/gAQFzQhlxPuea3svCt97Z0KsY51ty972XnuvZUXEp713MlMRATBsV0kAss256WpI2B5APU/5 Mg/Y9sUmM4kIt9bW4vf+/K8f/+Gvj7/hthOGbTO1VqqqCqLuIJ37zGUkJIYaZMI84C6TyfSck3kS noZmfvLi1/4D/LECKITLRhhiN1GKKgVXURvENEVCGN0vK0gbnxIbZia6F5QelITDCWEm4L78c4Zh 4VVAhhrBropD7A3KTLwHrQq8k5NrK/vaPccd5ZjcK4W7LjXCo01syOMp+nXhD5oi9mR3kzOo1cSp EzswGnVC1EluAU6kIHpyN02ZlWgdDbPdF6ejCBdmP6zNy7+0ciaBdigEbpXSoFRRadxsN2xbUAMi oYTQ2s2oZgsYCU++SNpmshtHWNOMsuE8ONfKtZoIJ9pvaIkbsKnIadoWbMAWQbtJCnkuPjER/RSc Mtn3Sp/QaicTnHATwX/rdoW92gZDQ5Ci7FBKqpUGFZ7/y5/4+j//Tq2F1hqlluvmOSa9d8aYPP7m d/j3K+/gbkrt2HB7mE3rbrafRqZtowEuMNQYpbKT3P/H3/jZz3+KpCt3zjzjTCps89HvPuPxqz9k 1IpOCTHZi7gdcb3c1erTDE3GYewwxmUz41uv8ujjz2mtLe79X2+t8ejjz+kvvAwtjeXcCmOawYR5 FYVncjZEbKa2QKWgZloRx2vvcNMqjz75Pb/59S+u0Vyi/OWvfst44XscL/6ANs1RAo/AVWiYuemr kSlAFqqNKEEQcggiePLG2xwPXuLh+x8iiYhAEg/f/5DjwUs8eeNtLOEqKaxKsBUREk1PD1sauL7F 9HNuQiZSeAsy4Pb1t5DFew8/uObs9OC73L7+FqmErRB3k5DJGnhsRJhwLv8XngGLvAkzg1pT1CAV 9JmULIxW6G++y/z+u6hWnEnOZKQZ3QyEFbhOyCRPwamCBl+G0V59bkJeFLDALThFoSPScAh629dc bRyITOiIHitPC5klhlsIxjMFspK9IDyju0AdQIOplctuyBTTImySZU9gEkwmvlwc8MXZ+W+bOMvB NbqLPswCE9bzYXP4HEXvdMPIZJp1oJf65+WgC53SZLnWoCuA0/zo28/d9hYSqRPWzBq1SYnUU0Ki IK1XciyPOyQyLrSwg/Do1SVGbqq277n19On2i3PFR3x6VoUvvcTnEtel1G1fx9er2mSmJZGZ1/FF VZ5ZZ4D/AX0oIxWADKooAAAAAElFTkSuQmCC "
     style="image-rendering:optimizeSpeed"
     preserveAspectRatio="none"
     height="19"
     width="27" />
  <image
     y="27.221638"
     x="136.35104"
     id="pressed-inactive-center"
     xlink:href="data:image/png;base64,iVBORw0KGgoAAAANSUhEUgAAABsAAAATCAYAAABhh3Y4AAAABHNCSVQICAgIfAhkiAAAAwhJREFU SIm1lT+rXUUUxX/7z5y5TyQWksIgYuNDUBS0ibGQFCISLJRAUlj7aquAPHgIVjYPy+c3EFP4Dfwe BizSCGIaQ8x995yZbTFzzr3xPnk2Dgz7/Jkza6+916wjqno2jiM7YwKcy8d/XQeAmbXF97778Yuz n35GLKGmiBnqjrkjZogaogoqiCgiQkRABBFB1ErUQp0morRYS1mujz69CfC9A4gIYo4mRzvQAuaO WgeVGbCD1SCitk1LQdSIaeoJjVQRiFjYLWWYWVhKaBoaYEqYtbgwtBkMogZEA6qbDdWdOm5AFYAQ QS8C05QaizRgKWFDRoeEpQFNCXXv5RToGUcE0ctVzCnT2MotG0SAUag7fXNAgF6+hA0DNmQsZ2wY 8GFYmIp7K7kIADUq0fuj7sjmnKrakhGWUl/AbGY0YDnjq1UDyy3OzEWkZQ9ErdRppI4TxRxUKdLe 0QX0TM/mLNWtAaWMz2A5c+2PB1x59PBSaf/54iv8dvVwYd1YVaJsC7llNitvSK2EOeOrA648esg3 X395KdjxySm/v/xWJxNELUSZ0FKWNTpfWGpiaD1rffPViicvvcbxySkppX+dxyenPLl2SDo4wFcZ G7qiu7j2mIlZk/pu33Lm8ds3sZy599W33P/hbI/R7TtHrF99k8ev38Ce/tUOdOpzTIht9pnJzmHW hWXG8or19VuMh+9w+87RHtB4+C7r92519bbyq6ftXmYX9EytAVpzjHa4t0zHDz5DU3oGsL5xnfH9 T7D1mpomIo0UT92JHFFdlAvgEU2bYu2FmCLmiBtqtkRNifjwLuXjz7cOMk3o5pzoLMSsJ63b/fQC ZogumYhq87fl4w6sfYogNNWpGdVsa2eu7ZtlL9nv2c7ZA6K5AN2aWjY97DyTdi9cNPafbplF7X7H zumvxPy8tkitIEIw/1rq8ruB7pc7zhH/tKsA7n50g+qJak71gZIPtveWQI2qBtrWC4AbMgzIc4a+ MKDleXQasfOn6DSiZULLyObXX3qnVM9q3fXm/2/8DX8qQVGhsVF0AAAAAElFTkSuQmCC "
     style="image-rendering:optimizeSpeed"
     preserveAspectRatio="none"
     height="19"
     width="27" />
  <image
     y="27.221638"
     x="163.35104"
     id="deactivated-center"
     xlink:href="data:image/png;base64,iVBORw0KGgoAAAANSUhEUgAAABsAAAATCAYAAABhh3Y4AAAABHNCSVQICAgIfAhkiAAAAUhJREFU SIm9lE1OwlAQx39T4ACsPUaXxhuwA2FPCqxN1CaEhJgYo2jCumLYqxA3PQGJS27B3gvIGxdKqbbN K1/+N31f837zpjMjQLBcLonpEyhiV95zAJRKJQACY4yX18gmf7ZIfI0xnuM4gbMviEUCsTBUT1u5 rIzC22S0FfHgL7s9OZLVOHrZ+Okhl3HTO9+WK//1z4CU1E14LlIB3Nicar2ddtd8+vIYZoFEJL1O pq/rBKjW2+711ZnFZ+j1hy6QCYOMovyTmfNef+je3VxmXuJ3BwBzm0P2DqAaIoLfHbiT5yCxXWt0 wBLCTFhGVobN1gW1RucXcBNQKixL49F9BIwt5wap6hqWs35Co4RbdhCNYPEM3KdEBGMMEAvjamEX OU6yR/izhUb7OxM2kACBqn6o6vvBICLHhUKhXPyZlIHKoWDwHeIvlAFvF4CmcrwAAAAASUVORK5C YII= "
     style="image-rendering:optimizeSpeed"
     preserveAspectRatio="none"
     height="19"
     width="27" />
  <image
     y="27.221638"
     x="190.35104"
     id="deactivated-inactive-center"
     xlink:href="data:image/png;base64,iVBORw0KGgoAAAANSUhEUgAAABsAAAATCAYAAABhh3Y4AAAABHNCSVQICAgIfAhkiAAAAUhJREFU SIm9lE1OwlAQx39T4ACsPUaXxhuwA2FPCqxN1CaEhJgYo2jCumLYqxA3PQGJS27B3gvIGxdKqbbN K1/+N31f837zpjMjQLBcLonpEyhiV95zAJRKJQACY4yX18gmf7ZIfI0xnuM4gbMviEUCsTBUT1u5 rIzC22S0FfHgL7s9OZLVOHrZ+Okhl3HTO9+WK//1z4CU1E14LlIB3Nicar2ddtd8+vIYZoFEJL1O pq/rBKjW2+711ZnFZ+j1hy6QCYOMovyTmfNef+je3VxmXuJ3BwBzm0P2DqAaIoLfHbiT5yCxXWt0 wBLCTFhGVobN1gW1RucXcBNQKixL49F9BIwt5wap6hqWs35Co4RbdhCNYPEM3KdEBGMMEAvjamEX OU6yR/izhUb7OxM2kACBqn6o6vvBICLHhUKhXPyZlIHKoWDwHeIvlAFvF4CmcrwAAAAASUVORK5C YII= "
     style="image-rendering:optimizeSpeed"
     preserveAspectRatio="none"
     height="19"
     width="27" />
</svg>
